<?xml version="1.0" encoding="UTF-8" standalone="no"?>
<!-- Created with Inkscape (http://www.inkscape.org/) -->

<svg
   xmlns:dc="http://purl.org/dc/elements/1.1/"
   xmlns:cc="http://creativecommons.org/ns#"
   xmlns:rdf="http://www.w3.org/1999/02/22-rdf-syntax-ns#"
   xmlns:svg="http://www.w3.org/2000/svg"
   xmlns="http://www.w3.org/2000/svg"
   xmlns:sodipodi="http://sodipodi.sourceforge.net/DTD/sodipodi-0.dtd"
   xmlns:inkscape="http://www.inkscape.org/namespaces/inkscape"
   preserveAspectRatio="none"
   width="1000mm"
   height="200mm"
   viewBox="0 0 1000 200"
   version="1.1"
   id="svg8"
   inkscape:version="0.92.3 (2405546, 2018-03-11)"
   sodipodi:docname="intro_breaker5.svg">
  <defs
     id="defs2">
    <inkscape:perspective
       sodipodi:type="inkscape:persp3d"
       inkscape:vp_x="-1.0690781 : 147.43091 : 1"
       inkscape:vp_y="0 : 999.99996 : 0"
       inkscape:vp_z="236.45968 : 579.33847 : 1"
       inkscape:persp3d-origin="103.93092 : 97.930918 : 1"
       id="perspective815" />
  </defs>
  <sodipodi:namedview
     id="base"
     pagecolor="#ffffff"
     bordercolor="#666666"
     borderopacity="1.0"
     inkscape:pageopacity="0.0"
     inkscape:pageshadow="2"
     inkscape:zoom="0.24748737"
     inkscape:cx="2189.3253"
     inkscape:cy="649.04432"
     inkscape:document-units="mm"
     inkscape:current-layer="layer1"
     showgrid="false"
     inkscape:window-width="1880"
     inkscape:window-height="1050"
     inkscape:window-x="3880"
     inkscape:window-y="0"
     inkscape:window-maximized="1" />
  <metadata
     id="metadata5">
    <rdf:RDF>
      <cc:Work
         rdf:about="">
        <dc:format>image/svg+xml</dc:format>
        <dc:type
           rdf:resource="http://purl.org/dc/dcmitype/StillImage" />
        <dc:title />
      </cc:Work>
    </rdf:RDF>
  </metadata>
  <g
     inkscape:label="Layer 1"
     inkscape:groupmode="layer"
     id="layer1"
     transform="translate(0,-97)">
    <path
       style="fill:#ffb300;fill-opacity:0.59067359;fill-rule:evenodd;stroke:none;stroke-width:0.26458332px;stroke-linecap:butt;stroke-linejoin:miter;stroke-opacity:1"
       d="m 878.2443,284.30835 c 0,0 -138.22733,-34.16299 -264.80362,-17.51514 -126.57629,16.64784 -182.23841,-34.03736 -182.23841,-34.03736 0,0 -102.54985,-70.44618 -187.71181,-32.10279 C 158.32849,238.99645 3.2810868,170.35668 3.2810868,170.35668 L -6.6571257,243.30535 1002.7039,328.81069 Z"
       id="path869"
       inkscape:connector-curvature="0" />
    <path
       style="fill:#ffb300;fill-opacity:1;fill-rule:evenodd;stroke:none;stroke-width:0.26458332px;stroke-linecap:butt;stroke-linejoin:miter;stroke-opacity:1"
       d="m 1005.7579,283.55098 c 0,0 -42.90458,-40.02776 -128.91556,-27.62896 -86.01098,12.3988 -61.62925,35.65389 -148.50982,24.86171 -91.9874,-11.42653 -94.78742,-28.22803 -117.57405,-44.97577 -26.76922,-19.67486 -38.80143,-48.13383 -79.13675,-51.40927 -52.74327,-4.28304 -74.03006,23.27023 -80.97806,33.70484 -6.94805,10.43462 -17.92742,50.71457 -99.58643,29.46203 -81.65901,-21.25254 -43.60144,-58.77237 -108.23178,-57.02979 -64.63031,1.74258 -60.6791,-27.15126 -127.96189,-29.94425 -67.282764,-2.79298 -75.160704,27.68659 -78.414278,30.28726 -3.253606,2.60069 -11.587988,11.48114 -39.7718797,3.8366 -4.6081578,9.67347 -3.334528,113.80373 -3.334528,113.80373 L 1002.7039,328.81069 Z"
       id="path831"
       inkscape:connector-curvature="0"
       sodipodi:nodetypes="csssscsssccccc" />
  </g>
</svg>
