<?xml version="1.0" encoding="UTF-8" standalone="no"?>
<!-- Created with Inkscape (http://www.inkscape.org/) -->

<svg
   xmlns:dc="http://purl.org/dc/elements/1.1/"
   xmlns:cc="http://creativecommons.org/ns#"
   xmlns:rdf="http://www.w3.org/1999/02/22-rdf-syntax-ns#"
   xmlns:svg="http://www.w3.org/2000/svg"
   xmlns="http://www.w3.org/2000/svg"
   xmlns:sodipodi="http://sodipodi.sourceforge.net/DTD/sodipodi-0.dtd"
   xmlns:inkscape="http://www.inkscape.org/namespaces/inkscape"
   preserveAspectRatio="none"
   width="1000mm"
   height="200mm"
   viewBox="0 0 1000 200"
   version="1.1"
   id="svg8"
   inkscape:version="0.92.3 (2405546, 2018-03-11)"
   sodipodi:docname="intro_breaker1.svg">
  <defs
     id="defs2">
    <inkscape:perspective
       sodipodi:type="inkscape:persp3d"
       inkscape:vp_x="-1.0690781 : 147.43091 : 1"
       inkscape:vp_y="0 : 999.99996 : 0"
       inkscape:vp_z="236.45968 : 579.33847 : 1"
       inkscape:persp3d-origin="103.93092 : 97.930918 : 1"
       id="perspective815" />
  </defs>
  <sodipodi:namedview
     id="base"
     pagecolor="#ffffff"
     bordercolor="#666666"
     borderopacity="1.0"
     inkscape:pageopacity="0.0"
     inkscape:pageshadow="2"
     inkscape:zoom="0.24748737"
     inkscape:cx="1848.536"
     inkscape:cy="653.09936"
     inkscape:document-units="mm"
     inkscape:current-layer="layer1"
     showgrid="false"
     inkscape:window-width="1880"
     inkscape:window-height="1050"
     inkscape:window-x="3880"
     inkscape:window-y="0"
     inkscape:window-maximized="1" />
  <metadata
     id="metadata5">
    <rdf:RDF>
      <cc:Work
         rdf:about="">
        <dc:format>image/svg+xml</dc:format>
        <dc:type
           rdf:resource="http://purl.org/dc/dcmitype/StillImage" />
        <dc:title />
      </cc:Work>
    </rdf:RDF>
  </metadata>
  <g
     inkscape:label="Layer 1"
     inkscape:groupmode="layer"
     id="layer1"
     transform="translate(0,-97)">
    <path
       style="fill:#db4d4d;fill-opacity:1;fill-rule:evenodd;stroke:none;stroke-width:0.26458332px;stroke-linecap:butt;stroke-linejoin:miter;stroke-opacity:1"
       d="m 122.19901,251.12169 c 0,0 141.57448,-15.18453 264.74339,18.4031 123.16891,33.58762 185.16549,-9.11701 185.16549,-9.11701 0,0 111.1233,-55.95309 190.32754,-6.46104 79.20424,49.49207 242.10037,2.41784 242.10037,2.41784 l -0,73.62252 L -7.1300672,278.40998 Z"
       id="path869"
       inkscape:connector-curvature="0" />
    <path
       style="fill:#c62828;fill-opacity:1;fill-rule:evenodd;stroke:none;stroke-width:0.26458332px;stroke-linecap:butt;stroke-linejoin:miter;stroke-opacity:1"
       d="m -4.0443823,233.15242 c 0,0 47.9167553,-33.8675 131.4656723,-9.96776 83.5489,23.89976 56.25024,43.64945 143.79237,44.68806 92.68785,1.09966 96.21887,-18.42515 122.57049,-28.68719 29.66124,-11.55089 37.87814,-29.43386 78.1957,-32.92109 47.83786,-4.1377 77.36798,25.7227 82.84331,36.99996 5.47536,11.27727 10.91496,52.6709 94.69588,42.63986 83.78092,-10.03105 51.13843,-52.34634 114.9415,-41.89234 63.80303,10.45399 63.78969,-18.70876 130.83338,-12.39062 67.04367,6.31814 70.73363,37.58234 73.60623,40.59854 2.87262,3.01622 9.93149,12.94077 38.88955,9.17207 3.2597,10.20713 -3.2574,48.59519 -3.2574,48.59519 L -3.9228328,307.27509 Z"
       id="path831"
       inkscape:connector-curvature="0"
       sodipodi:nodetypes="csssscsssccccc" />
  </g>
</svg>
